INDEX VERSION 1.126+C:\Users\102744\SparkleShare\c306\.metadata\.plugins\org.eclipse.jdt.core
1741514116.index
1966982392.index
396857611.index
1853565359.index
3907112939.index
4188663847.index
2732541088.index
3597353553.index
2393817265.index
